generators/lc-dco/tools/test.vcd
$date
	Thu Feb 17 00:14:57 2022
$end
$version
	Icarus Verilog
$end
$timescale
	1ps
$end
$scope module lc_dco_tb $end
$var wire 1 ! outp_sig $end
$var wire 1 " outn_sig $end
$var reg 8 # sw_val [7:0] $end
$scope module lc_dco_inst $end
$var wire 1 $ Ibias $end
$var wire 1 " outn $end
$var wire 1 ! outp $end
$var wire 8 % sw [7:0] $end
$var reg 1 & outnwire $end
$var reg 1 ' outpwire $end
$var real 1 ( Freq $end
$upscope $end
$upscope $end
$enddefinitions $end
#0
$dumpvars
r1 (
0'
0&
b0 %
z$
b0 #
1"
0!
$end
#500
0"
1!
1'
#1000
1"
0!
0'
#1500
0"
1!
1'
#2000
1"
0!
0'
#2500
0"
1!
1'
#3000
1"
0!
0'
#3500
0"
1!
1'
#4000
1"
0!
0'
#4500
0"
1!
1'
#5000
1"
0!
0'
#5500
0"
1!
1'
#6000
1"
0!
0'
#6500
0"
1!
1'
#7000
1"
0!
0'
#7500
0"
1!
1'
#8000
1"
0!
0'
#8500
0"
1!
1'
#9000
1"
0!
0'
#9500
0"
1!
1'
#10000
1"
0!
0'
#10500
0"
1!
1'
#11000
1"
0!
0'
#11500
0"
1!
1'
#12000
1"
0!
0'
#12500
0"
1!
1'
#13000
1"
0!
0'
#13500
0"
1!
1'
#14000
1"
0!
0'
#14500
0"
1!
1'
#15000
1"
0!
0'
#15500
0"
1!
1'
#16000
1"
0!
0'
#16500
0"
1!
1'
#17000
1"
0!
0'
#17500
0"
1!
1'
#18000
1"
0!
0'
#18500
0"
1!
1'
#19000
1"
0!
0'
#19500
0"
1!
1'
#20000
1"
0!
0'
#20500
0"
1!
1'
#21000
1"
0!
0'
#21500
0"
1!
1'
#22000
1"
0!
0'
#22500
0"
1!
1'
#23000
1"
0!
0'
#23500
0"
1!
1'
#24000
1"
0!
0'
#24500
0"
1!
1'
#25000
1"
0!
0'
#25500
0"
1!
1'
#26000
1"
0!
0'
#26500
0"
1!
1'
#27000
1"
0!
0'
#27500
0"
1!
1'
#28000
1"
0!
0'
#28500
0"
1!
1'
#29000
1"
0!
0'
#29500
0"
1!
1'
#30000
1"
0!
0'
#30500
0"
1!
1'
#31000
1"
0!
0'
#31500
0"
1!
1'
#32000
1"
0!
0'
#32500
0"
1!
1'
#33000
1"
0!
0'
#33500
0"
1!
1'
#34000
1"
0!
0'
#34500
0"
1!
1'
#35000
1"
0!
0'
#35500
0"
1!
1'
#36000
1"
0!
0'
#36500
0"
1!
1'
#37000
1"
0!
0'
#37500
0"
1!
1'
#38000
1"
0!
0'
#38500
0"
1!
1'
#39000
1"
0!
0'
#39500
0"
1!
1'
#40000
1"
0!
0'
#40500
0"
1!
1'
#41000
1"
0!
0'
#41500
0"
1!
1'
#42000
1"
0!
0'
#42500
0"
1!
1'
#43000
1"
0!
0'
#43500
0"
1!
1'
#44000
1"
0!
0'
#44500
0"
1!
1'
#45000
1"
0!
0'
#45500
0"
1!
1'
#46000
1"
0!
0'
#46500
0"
1!
1'
#47000
1"
0!
0'
#47500
0"
1!
1'
#48000
1"
0!
0'
#48500
0"
1!
1'
#49000
1"
0!
0'
#49500
0"
1!
1'
#50000
1"
0!
0'
#50500
0"
1!
1'
#51000
1"
0!
0'
#51500
0"
1!
1'
#52000
1"
0!
0'
#52500
0"
1!
1'
#53000
1"
0!
0'
#53500
0"
1!
1'
#54000
1"
0!
0'
#54500
0"
1!
1'
#55000
1"
0!
0'
#55500
0"
1!
1'
#56000
1"
0!
0'
#56500
0"
1!
1'
#57000
1"
0!
0'
#57500
0"
1!
1'
#58000
1"
0!
0'
#58500
0"
1!
1'
#59000
1"
0!
0'
#59500
0"
1!
1'
#60000
1"
0!
0'
#60500
0"
1!
1'
#61000
1"
0!
0'
#61500
0"
1!
1'
#62000
1"
0!
0'
#62500
0"
1!
1'
#63000
1"
0!
0'
#63500
0"
1!
1'
#64000
1"
0!
0'
#64500
0"
1!
1'
#65000
1"
0!
0'
#65500
0"
1!
1'
#66000
1"
0!
0'
#66500
0"
1!
1'
#67000
1"
0!
0'
#67500
0"
1!
1'
#68000
1"
0!
0'
#68500
0"
1!
1'
#69000
1"
0!
0'
#69500
0"
1!
1'
#70000
1"
0!
0'
#70500
0"
1!
1'
#71000
1"
0!
0'
#71500
0"
1!
1'
#72000
1"
0!
0'
#72500
0"
1!
1'
#73000
1"
0!
0'
#73500
0"
1!
1'
#74000
1"
0!
0'
#74500
0"
1!
1'
#75000
1"
0!
0'
#75500
0"
1!
1'
#76000
1"
0!
0'
#76500
0"
1!
1'
#77000
1"
0!
0'
#77500
0"
1!
1'
#78000
1"
0!
0'
#78500
0"
1!
1'
#79000
1"
0!
0'
#79500
0"
1!
1'
#80000
1"
0!
0'
#80500
0"
1!
1'
#81000
1"
0!
0'
#81500
0"
1!
1'
#82000
1"
0!
0'
#82500
0"
1!
1'
#83000
1"
0!
0'
#83500
0"
1!
1'
#84000
1"
0!
0'
#84500
0"
1!
1'
#85000
1"
0!
0'
#85500
0"
1!
1'
#86000
1"
0!
0'
#86500
0"
1!
1'
#87000
1"
0!
0'
#87500
0"
1!
1'
#88000
1"
0!
0'
#88500
0"
1!
1'
#89000
1"
0!
0'
#89500
0"
1!
1'
#90000
1"
0!
0'
#90500
0"
1!
1'
#91000
1"
0!
0'
#91500
0"
1!
1'
#92000
1"
0!
0'
#92500
0"
1!
1'
#93000
1"
0!
0'
#93500
0"
1!
1'
#94000
1"
0!
0'
#94500
0"
1!
1'
#95000
1"
0!
0'
#95500
0"
1!
1'
#96000
1"
0!
0'
#96500
0"
1!
1'
#97000
1"
0!
0'
#97500
0"
1!
1'
#98000
1"
0!
0'
#98500
0"
1!
1'
#99000
1"
0!
0'
#99500
0"
1!
1'
#100000
1"
r3.287149 (
0!
0'
b1 #
b1 %
#100152
0"
1!
1'
#100304
1"
0!
0'
#100456
0"
1!
1'
#100608
1"
0!
0'
#100760
0"
1!
1'
#100912
1"
0!
0'
#101064
0"
1!
1'
#101216
1"
0!
0'
#101368
0"
1!
1'
#101520
1"
0!
0'
#101672
0"
1!
1'
#101824
1"
0!
0'
#101976
0"
1!
1'
#102128
1"
0!
0'
#102280
0"
1!
1'
#102432
1"
0!
0'
#102584
0"
1!
1'
#102736
1"
0!
0'
#102888
0"
1!
1'
#103040
1"
0!
0'
#103192
0"
1!
1'
#103344
1"
0!
0'
#103496
0"
1!
1'
#103648
1"
0!
0'
#103800
0"
1!
1'
#103952
1"
0!
0'
#104104
0"
1!
1'
#104256
1"
0!
0'
#104408
0"
1!
1'
#104560
1"
0!
0'
#104712
0"
1!
1'
#104864
1"
0!
0'
#105016
0"
1!
1'
#105168
1"
0!
0'
#105320
0"
1!
1'
#105472
1"
0!
0'
#105624
0"
1!
1'
#105776
1"
0!
0'
#105928
0"
1!
1'
#106080
1"
0!
0'
#106232
0"
1!
1'
#106384
1"
0!
0'
#106536
0"
1!
1'
#106688
1"
0!
0'
#106840
0"
1!
1'
#106992
1"
0!
0'
#107144
0"
1!
1'
#107296
1"
0!
0'
#107448
0"
1!
1'
#107600
1"
0!
0'
#107752
0"
1!
1'
#107904
1"
0!
0'
#108056
0"
1!
1'
#108208
1"
0!
0'
#108360
0"
1!
1'
#108512
1"
0!
0'
#108664
0"
1!
1'
#108816
1"
0!
0'
#108968
0"
1!
1'
#109120
1"
0!
0'
#109272
0"
1!
1'
#109424
1"
0!
0'
#109576
0"
1!
1'
#109728
1"
0!
0'
#109880
0"
1!
1'
#110032
1"
0!
0'
#110184
0"
1!
1'
#110336
1"
0!
0'
#110488
0"
1!
1'
#110640
1"
0!
0'
#110792
0"
1!
1'
#110944
1"
0!
0'
#111096
0"
1!
1'
#111248
1"
0!
0'
#111400
0"
1!
1'
#111552
1"
0!
0'
#111704
0"
1!
1'
#111856
1"
0!
0'
#112008
0"
1!
1'
#112160
1"
0!
0'
#112312
0"
1!
1'
#112464
1"
0!
0'
#112616
0"
1!
1'
#112768
1"
0!
0'
#112920
0"
1!
1'
#113072
1"
0!
0'
#113224
0"
1!
1'
#113376
1"
0!
0'
#113528
0"
1!
1'
#113680
1"
0!
0'
#113832
0"
1!
1'
#113984
1"
0!
0'
#114136
0"
1!
1'
#114288
1"
0!
0'
#114440
0"
1!
1'
#114592
1"
0!
0'
#114744
0"
1!
1'
#114896
1"
0!
0'
#115048
0"
1!
1'
#115200
1"
0!
0'
#115352
0"
1!
1'
#115504
1"
0!
0'
#115656
0"
1!
1'
#115808
1"
0!
0'
#115960
0"
1!
1'
#116112
1"
0!
0'
#116264
0"
1!
1'
#116416
1"
0!
0'
#116568
0"
1!
1'
#116720
1"
0!
0'
#116872
0"
1!
1'
#117024
1"
0!
0'
#117176
0"
1!
1'
#117328
1"
0!
0'
#117480
0"
1!
1'
#117632
1"
0!
0'
#117784
0"
1!
1'
#117936
1"
0!
0'
#118088
0"
1!
1'
#118240
1"
0!
0'
#118392
0"
1!
1'
#118544
1"
0!
0'
#118696
0"
1!
1'
#118848
1"
0!
0'
#119000
0"
1!
1'
#119152
1"
0!
0'
#119304
0"
1!
1'
#119456
1"
0!
0'
#119608
0"
1!
1'
#119760
1"
0!
0'
#119912
0"
1!
1'
#120064
1"
0!
0'
#120216
0"
1!
1'
#120368
1"
0!
0'
#120520
0"
1!
1'
#120672
1"
0!
0'
#120824
0"
1!
1'
#120976
1"
0!
0'
#121128
0"
1!
1'
#121280
1"
0!
0'
#121432
0"
1!
1'
#121584
1"
0!
0'
#121736
0"
1!
1'
#121888
1"
0!
0'
#122040
0"
1!
1'
#122192
1"
0!
0'
#122344
0"
1!
1'
#122496
1"
0!
0'
#122648
0"
1!
1'
#122800
1"
0!
0'
#122952
0"
1!
1'
#123104
1"
0!
0'
#123256
0"
1!
1'
#123408
1"
0!
0'
#123560
0"
1!
1'
#123712
1"
0!
0'
#123864
0"
1!
1'
#124016
1"
0!
0'
#124168
0"
1!
1'
#124320
1"
0!
0'
#124472
0"
1!
1'
#124624
1"
0!
0'
#124776
0"
1!
1'
#124928
1"
0!
0'
#125080
0"
1!
1'
#125232
1"
0!
0'
#125384
0"
1!
1'
#125536
1"
0!
0'
#125688
0"
1!
1'
#125840
1"
0!
0'
#125992
0"
1!
1'
#126144
1"
0!
0'
#126296
0"
1!
1'
#126448
1"
0!
0'
#126600
0"
1!
1'
#126752
1"
0!
0'
#126904
0"
1!
1'
#127056
1"
0!
0'
#127208
0"
1!
1'
#127360
1"
0!
0'
#127512
0"
1!
1'
#127664
1"
0!
0'
#127816
0"
1!
1'
#127968
1"
0!
0'
#128120
0"
1!
1'
#128272
1"
0!
0'
#128424
0"
1!
1'
#128576
1"
0!
0'
#128728
0"
1!
1'
#128880
1"
0!
0'
#129032
0"
1!
1'
#129184
1"
0!
0'
#129336
0"
1!
1'
#129488
1"
0!
0'
#129640
0"
1!
1'
#129792
1"
0!
0'
#129944
0"
1!
1'
#130096
1"
0!
0'
#130248
0"
1!
1'
#130400
1"
0!
0'
#130552
0"
1!
1'
#130704
1"
0!
0'
#130856
0"
1!
1'
#131008
1"
0!
0'
#131160
0"
1!
1'
#131312
1"
0!
0'
#131464
0"
1!
1'
#131616
1"
0!
0'
#131768
0"
1!
1'
#131920
1"
0!
0'
#132072
0"
1!
1'
#132224
1"
0!
0'
#132376
0"
1!
1'
#132528
1"
0!
0'
#132680
0"
1!
1'
#132832
1"
0!
0'
#132984
0"
1!
1'
#133136
1"
0!
0'
#133288
0"
1!
1'
#133440
1"
0!
0'
#133592
0"
1!
1'
#133744
1"
0!
0'
#133896
0"
1!
1'
#134048
1"
0!
0'
#134200
0"
1!
1'
#134352
1"
0!
0'
#134504
0"
1!
1'
#134656
1"
0!
0'
#134808
0"
1!
1'
#134960
1"
0!
0'
#135112
0"
1!
1'
#135264
1"
0!
0'
#135416
0"
1!
1'
#135568
1"
0!
0'
#135720
0"
1!
1'
#135872
1"
0!
0'
#136024
0"
1!
1'
#136176
1"
0!
0'
#136328
0"
1!
1'
#136480
1"
0!
0'
#136632
0"
1!
1'
#136784
1"
0!
0'
#136936
0"
1!
1'
#137088
1"
0!
0'
#137240
0"
1!
1'
#137392
1"
0!
0'
#137544
0"
1!
1'
#137696
1"
0!
0'
#137848
0"
1!
1'
#138000
1"
0!
0'
#138152
0"
1!
1'
#138304
1"
0!
0'
#138456
0"
1!
1'
#138608
1"
0!
0'
#138760
0"
1!
1'
#138912
1"
0!
0'
#139064
0"
1!
1'
#139216
1"
0!
0'
#139368
0"
1!
1'
#139520
1"
0!
0'
#139672
0"
1!
1'
#139824
1"
0!
0'
#139976
0"
1!
1'
#140128
1"
0!
0'
#140280
0"
1!
1'
#140432
1"
0!
0'
#140584
0"
1!
1'
#140736
1"
0!
0'
#140888
0"
1!
1'
#141040
1"
0!
0'
#141192
0"
1!
1'
#141344
1"
0!
0'
#141496
0"
1!
1'
#141648
1"
0!
0'
#141800
0"
1!
1'
#141952
1"
0!
0'
#142104
0"
1!
1'
#142256
1"
0!
0'
#142408
0"
1!
1'
#142560
1"
0!
0'
#142712
0"
1!
1'
#142864
1"
0!
0'
#143016
0"
1!
1'
#143168
1"
0!
0'
#143320
0"
1!
1'
#143472
1"
0!
0'
#143624
0"
1!
1'
#143776
1"
0!
0'
#143928
0"
1!
1'
#144080
1"
0!
0'
#144232
0"
1!
1'
#144384
1"
0!
0'
#144536
0"
1!
1'
#144688
1"
0!
0'
#144840
0"
1!
1'
#144992
1"
0!
0'
#145144
0"
1!
1'
#145296
1"
0!
0'
#145448
0"
1!
1'
#145600
1"
0!
0'
#145752
0"
1!
1'
#145904
1"
0!
0'
#146056
0"
1!
1'
#146208
1"
0!
0'
#146360
0"
1!
1'
#146512
1"
0!
0'
#146664
0"
1!
1'
#146816
1"
0!
0'
#146968
0"
1!
1'
#147120
1"
0!
0'
#147272
0"
1!
1'
#147424
1"
0!
0'
#147576
0"
1!
1'
#147728
1"
0!
0'
#147880
0"
1!
1'
#148032
1"
0!
0'
#148184
0"
1!
1'
#148336
1"
0!
0'
#148488
0"
1!
1'
#148640
1"
0!
0'
#148792
0"
1!
1'
#148944
1"
0!
0'
#149096
0"
1!
1'
#149248
1"
0!
0'
#149400
0"
1!
1'
#149552
1"
0!
0'
#149704
0"
1!
1'
#149856
1"
0!
0'
#150008
0"
1!
1'
#150160
1"
0!
0'
#150312
0"
1!
1'
#150464
1"
0!
0'
#150616
0"
1!
1'
#150768
1"
0!
0'
#150920
0"
1!
1'
#151072
1"
0!
0'
#151224
0"
1!
1'
#151376
1"
0!
0'
#151528
0"
1!
1'
#151680
1"
0!
0'
#151832
0"
1!
1'
#151984
1"
0!
0'
#152136
0"
1!
1'
#152288
1"
0!
0'
#152440
0"
1!
1'
#152592
1"
0!
0'
#152744
0"
1!
1'
#152896
1"
0!
0'
#153048
0"
1!
1'
#153200
1"
0!
0'
#153352
0"
1!
1'
#153504
1"
0!
0'
#153656
0"
1!
1'
#153808
1"
0!
0'
#153960
0"
1!
1'
#154112
1"
0!
0'
#154264
0"
1!
1'
#154416
1"
0!
0'
#154568
0"
1!
1'
#154720
1"
0!
0'
#154872
0"
1!
1'
#155024
1"
0!
0'
#155176
0"
1!
1'
#155328
1"
0!
0'
#155480
0"
1!
1'
#155632
1"
0!
0'
#155784
0"
1!
1'
#155936
1"
0!
0'
#156088
0"
1!
1'
#156240
1"
0!
0'
#156392
0"
1!
1'
#156544
1"
0!
0'
#156696
0"
1!
1'
#156848
1"
0!
0'
#157000
0"
1!
1'
#157152
1"
0!
0'
#157304
0"
1!
1'
#157456
1"
0!
0'
#157608
0"
1!
1'
#157760
1"
0!
0'
#157912
0"
1!
1'
#158064
1"
0!
0'
#158216
0"
1!
1'
#158368
1"
0!
0'
#158520
0"
1!
1'
#158672
1"
0!
0'
#158824
0"
1!
1'
#158976
1"
0!
0'
#159128
0"
1!
1'
#159280
1"
0!
0'
#159432
0"
1!
1'
#159584
1"
0!
0'
#159736
0"
1!
1'
#159888
1"
0!
0'
#160040
0"
1!
1'
#160192
1"
0!
0'
#160344
0"
1!
1'
#160496
1"
0!
0'
#160648
0"
1!
1'
#160800
1"
0!
0'
#160952
0"
1!
1'
#161104
1"
0!
0'
#161256
0"
1!
1'
#161408
1"
0!
0'
#161560
0"
1!
1'
#161712
1"
0!
0'
#161864
0"
1!
1'
#162016
1"
0!
0'
#162168
0"
1!
1'
#162320
1"
0!
0'
#162472
0"
1!
1'
#162624
1"
0!
0'
#162776
0"
1!
1'
#162928
1"
0!
0'
#163080
0"
1!
1'
#163232
1"
0!
0'
#163384
0"
1!
1'
#163536
1"
0!
0'
#163688
0"
1!
1'
#163840
1"
0!
0'
#163992
0"
1!
1'
#164144
1"
0!
0'
#164296
0"
1!
1'
#164448
1"
0!
0'
#164600
0"
1!
1'
#164752
1"
0!
0'
#164904
0"
1!
1'
#165056
1"
0!
0'
#165208
0"
1!
1'
#165360
1"
0!
0'
#165512
0"
1!
1'
#165664
1"
0!
0'
#165816
0"
1!
1'
#165968
1"
0!
0'
#166120
0"
1!
1'
#166272
1"
0!
0'
#166424
0"
1!
1'
#166576
1"
0!
0'
#166728
0"
1!
1'
#166880
1"
0!
0'
#167032
0"
1!
1'
#167184
1"
0!
0'
#167336
0"
1!
1'
#167488
1"
0!
0'
#167640
0"
1!
1'
#167792
1"
0!
0'
#167944
0"
1!
1'
#168096
1"
0!
0'
#168248
0"
1!
1'
#168400
1"
0!
0'
#168552
0"
1!
1'
#168704
1"
0!
0'
#168856
0"
1!
1'
#169008
1"
0!
0'
#169160
0"
1!
1'
#169312
1"
0!
0'
#169464
0"
1!
1'
#169616
1"
0!
0'
#169768
0"
1!
1'
#169920
1"
0!
0'
#170072
0"
1!
1'
#170224
1"
0!
0'
#170376
0"
1!
1'
#170528
1"
0!
0'
#170680
0"
1!
1'
#170832
1"
0!
0'
#170984
0"
1!
1'
#171136
1"
0!
0'
#171288
0"
1!
1'
#171440
1"
0!
0'
#171592
0"
1!
1'
#171744
1"
0!
0'
#171896
0"
1!
1'
#172048
1"
0!
0'
#172200
0"
1!
1'
#172352
1"
0!
0'
#172504
0"
1!
1'
#172656
1"
0!
0'
#172808
0"
1!
1'
#172960
1"
0!
0'
#173112
0"
1!
1'
#173264
1"
0!
0'
#173416
0"
1!
1'
#173568
1"
0!
0'
#173720
0"
1!
1'
#173872
1"
0!
0'
#174024
0"
1!
1'
#174176
1"
0!
0'
#174328
0"
1!
1'
#174480
1"
0!
0'
#174632
0"
1!
1'
#174784
1"
0!
0'
#174936
0"
1!
1'
#175088
1"
0!
0'
#175240
0"
1!
1'
#175392
1"
0!
0'
#175544
0"
1!
1'
#175696
1"
0!
0'
#175848
0"
1!
1'
#176000
1"
0!
0'
#176152
0"
1!
1'
#176304
1"
0!
0'
#176456
0"
1!
1'
#176608
1"
0!
0'
#176760
0"
1!
1'
#176912
1"
0!
0'
#177064
0"
1!
1'
#177216
1"
0!
0'
#177368
0"
1!
1'
#177520
1"
0!
0'
#177672
0"
1!
1'
#177824
1"
0!
0'
#177976
0"
1!
1'
#178128
1"
0!
0'
#178280
0"
1!
1'
#178432
1"
0!
0'
#178584
0"
1!
1'
#178736
1"
0!
0'
#178888
0"
1!
1'
#179040
1"
0!
0'
#179192
0"
1!
1'
#179344
1"
0!
0'
#179496
0"
1!
1'
#179648
1"
0!
0'
#179800
0"
1!
1'
#179952
1"
0!
0'
#180104
0"
1!
1'
#180256
1"
0!
0'
#180408
0"
1!
1'
#180560
1"
0!
0'
#180712
0"
1!
1'
#180864
1"
0!
0'
#181016
0"
1!
1'
#181168
1"
0!
0'
#181320
0"
1!
1'
#181472
1"
0!
0'
#181624
0"
1!
1'
#181776
1"
0!
0'
#181928
0"
1!
1'
#182080
1"
0!
0'
#182232
0"
1!
1'
#182384
1"
0!
0'
#182536
0"
1!
1'
#182688
1"
0!
0'
#182840
0"
1!
1'
#182992
1"
0!
0'
#183144
0"
1!
1'
#183296
1"
0!
0'
#183448
0"
1!
1'
#183600
1"
0!
0'
#183752
0"
1!
1'
#183904
1"
0!
0'
#184056
0"
1!
1'
#184208
1"
0!
0'
#184360
0"
1!
1'
#184512
1"
0!
0'
#184664
0"
1!
1'
#184816
1"
0!
0'
#184968
0"
1!
1'
#185120
1"
0!
0'
#185272
0"
1!
1'
#185424
1"
0!
0'
#185576
0"
1!
1'
#185728
1"
0!
0'
#185880
0"
1!
1'
#186032
1"
0!
0'
#186184
0"
1!
1'
#186336
1"
0!
0'
#186488
0"
1!
1'
#186640
1"
0!
0'
#186792
0"
1!
1'
#186944
1"
0!
0'
#187096
0"
1!
1'
#187248
1"
0!
0'
#187400
0"
1!
1'
#187552
1"
0!
0'
#187704
0"
1!
1'
#187856
1"
0!
0'
#188008
0"
1!
1'
#188160
1"
0!
0'
#188312
0"
1!
1'
#188464
1"
0!
0'
#188616
0"
1!
1'
#188768
1"
0!
0'
#188920
0"
1!
1'
#189072
1"
0!
0'
#189224
0"
1!
1'
#189376
1"
0!
0'
#189528
0"
1!
1'
#189680
1"
0!
0'
#189832
0"
1!
1'
#189984
1"
0!
0'
#190136
0"
1!
1'
#190288
1"
0!
0'
#190440
0"
1!
1'
#190592
1"
0!
0'
#190744
0"
1!
1'
#190896
1"
0!
0'
#191048
0"
1!
1'
#191200
1"
0!
0'
#191352
0"
1!
1'
#191504
1"
0!
0'
#191656
0"
1!
1'
#191808
1"
0!
0'
#191960
0"
1!
1'
#192112
1"
0!
0'
#192264
0"
1!
1'
#192416
1"
0!
0'
#192568
0"
1!
1'
#192720
1"
0!
0'
#192872
0"
1!
1'
#193024
1"
0!
0'
#193176
0"
1!
1'
#193328
1"
0!
0'
#193480
0"
1!
1'
#193632
1"
0!
0'
#193784
0"
1!
1'
#193936
1"
0!
0'
#194088
0"
1!
1'
#194240
1"
0!
0'
#194392
0"
1!
1'
#194544
1"
0!
0'
#194696
0"
1!
1'
#194848
1"
0!
0'
#195000
0"
1!
1'
#195152
1"
0!
0'
#195304
0"
1!
1'
#195456
1"
0!
0'
#195608
0"
1!
1'
#195760
1"
0!
0'
#195912
0"
1!
1'
#196064
1"
0!
0'
#196216
0"
1!
1'
#196368
1"
0!
0'
#196520
0"
1!
1'
#196672
1"
0!
0'
#196824
0"
1!
1'
#196976
1"
0!
0'
#197128
0"
1!
1'
#197280
1"
0!
0'
#197432
0"
1!
1'
#197584
1"
0!
0'
#197736
0"
1!
1'
#197888
1"
0!
0'
#198040
0"
1!
1'
#198192
1"
0!
0'
#198344
0"
1!
1'
#198496
1"
0!
0'
#198648
0"
1!
1'
#198800
1"
0!
0'
#198952
0"
1!
1'
#199104
1"
0!
0'
#199256
0"
1!
1'
#199408
1"
0!
0'
#199560
0"
1!
1'
#199712
1"
0!
0'
#199864
0"
1!
1'
#200000
r3.185616 (
b1111 #
b1111 %
#200016
1"
0!
0'
#200173
0"
1!
1'
#200330
1"
0!
0'
#200487
0"
1!
1'
#200644
1"
0!
0'
#200801
0"
1!
1'
#200958
1"
0!
0'
#201115
0"
1!
1'
#201272
1"
0!
0'
#201429
0"
1!
1'
#201586
1"
0!
0'
#201743
0"
1!
1'
#201900
1"
0!
0'
#202057
0"
1!
1'
#202214
1"
0!
0'
#202371
0"
1!
1'
#202528
1"
0!
0'
#202685
0"
1!
1'
#202842
1"
0!
0'
#202999
0"
1!
1'
#203156
1"
0!
0'
#203313
0"
1!
1'
#203470
1"
0!
0'
#203627
0"
1!
1'
#203784
1"
0!
0'
#203941
0"
1!
1'
#204098
1"
0!
0'
#204255
0"
1!
1'
#204412
1"
0!
0'
#204569
0"
1!
1'
#204726
1"
0!
0'
#204883
0"
1!
1'
#205040
1"
0!
0'
#205197
0"
1!
1'
#205354
1"
0!
0'
#205511
0"
1!
1'
#205668
1"
0!
0'
#205825
0"
1!
1'
#205982
1"
0!
0'
#206139
0"
1!
1'
#206296
1"
0!
0'
#206453
0"
1!
1'
#206610
1"
0!
0'
#206767
0"
1!
1'
#206924
1"
0!
0'
#207081
0"
1!
1'
#207238
1"
0!
0'
#207395
0"
1!
1'
#207552
1"
0!
0'
#207709
0"
1!
1'
#207866
1"
0!
0'
#208023
0"
1!
1'
#208180
1"
0!
0'
#208337
0"
1!
1'
#208494
1"
0!
0'
#208651
0"
1!
1'
#208808
1"
0!
0'
#208965
0"
1!
1'
#209122
1"
0!
0'
#209279
0"
1!
1'
#209436
1"
0!
0'
#209593
0"
1!
1'
#209750
1"
0!
0'
#209907
0"
1!
1'
#210064
1"
0!
0'
#210221
0"
1!
1'
#210378
1"
0!
0'
#210535
0"
1!
1'
#210692
1"
0!
0'
#210849
0"
1!
1'
#211006
1"
0!
0'
#211163
0"
1!
1'
#211320
1"
0!
0'
#211477
0"
1!
1'
#211634
1"
0!
0'
#211791
0"
1!
1'
#211948
1"
0!
0'
#212105
0"
1!
1'
#212262
1"
0!
0'
#212419
0"
1!
1'
#212576
1"
0!
0'
#212733
0"
1!
1'
#212890
1"
0!
0'
#213047
0"
1!
1'
#213204
1"
0!
0'
#213361
0"
1!
1'
#213518
1"
0!
0'
#213675
0"
1!
1'
#213832
1"
0!
0'
#213989
0"
1!
1'
#214146
1"
0!
0'
#214303
0"
1!
1'
#214460
1"
0!
0'
#214617
0"
1!
1'
#214774
1"
0!
0'
#214931
0"
1!
1'
#215088
1"
0!
0'
#215245
0"
1!
1'
#215402
1"
0!
0'
#215559
0"
1!
1'
#215716
1"
0!
0'
#215873
0"
1!
1'
#216030
1"
0!
0'
#216187
0"
1!
1'
#216344
1"
0!
0'
#216501
0"
1!
1'
#216658
1"
0!
0'
#216815
0"
1!
1'
#216972
1"
0!
0'
#217129
0"
1!
1'
#217286
1"
0!
0'
#217443
0"
1!
1'
#217600
1"
0!
0'
#217757
0"
1!
1'
#217914
1"
0!
0'
#218071
0"
1!
1'
#218228
1"
0!
0'
#218385
0"
1!
1'
#218542
1"
0!
0'
#218699
0"
1!
1'
#218856
1"
0!
0'
#219013
0"
1!
1'
#219170
1"
0!
0'
#219327
0"
1!
1'
#219484
1"
0!
0'
#219641
0"
1!
1'
#219798
1"
0!
0'
#219955
0"
1!
1'
#220112
1"
0!
0'
#220269
0"
1!
1'
#220426
1"
0!
0'
#220583
0"
1!
1'
#220740
1"
0!
0'
#220897
0"
1!
1'
#221054
1"
0!
0'
#221211
0"
1!
1'
#221368
1"
0!
0'
#221525
0"
1!
1'
#221682
1"
0!
0'
#221839
0"
1!
1'
#221996
1"
0!
0'
#222153
0"
1!
1'
#222310
1"
0!
0'
#222467
0"
1!
1'
#222624
1"
0!
0'
#222781
0"
1!
1'
#222938
1"
0!
0'
#223095
0"
1!
1'
#223252
1"
0!
0'
#223409
0"
1!
1'
#223566
1"
0!
0'
#223723
0"
1!
1'
#223880
1"
0!
0'
#224037
0"
1!
1'
#224194
1"
0!
0'
#224351
0"
1!
1'
#224508
1"
0!
0'
#224665
0"
1!
1'
#224822
1"
0!
0'
#224979
0"
1!
1'
#225136
1"
0!
0'
#225293
0"
1!
1'
#225450
1"
0!
0'
#225607
0"
1!
1'
#225764
1"
0!
0'
#225921
0"
1!
1'
#226078
1"
0!
0'
#226235
0"
1!
1'
#226392
1"
0!
0'
#226549
0"
1!
1'
#226706
1"
0!
0'
#226863
0"
1!
1'
#227020
1"
0!
0'
#227177
0"
1!
1'
#227334
1"
0!
0'
#227491
0"
1!
1'
#227648
1"
0!
0'
#227805
0"
1!
1'
#227962
1"
0!
0'
#228119
0"
1!
1'
#228276
1"
0!
0'
#228433
0"
1!
1'
#228590
1"
0!
0'
#228747
0"
1!
1'
#228904
1"
0!
0'
#229061
0"
1!
1'
#229218
1"
0!
0'
#229375
0"
1!
1'
#229532
1"
0!
0'
#229689
0"
1!
1'
#229846
1"
0!
0'
#230003
0"
1!
1'
#230160
1"
0!
0'
#230317
0"
1!
1'
#230474
1"
0!
0'
#230631
0"
1!
1'
#230788
1"
0!
0'
#230945
0"
1!
1'
#231102
1"
0!
0'
#231259
0"
1!
1'
#231416
1"
0!
0'
#231573
0"
1!
1'
#231730
1"
0!
0'
#231887
0"
1!
1'
#232044
1"
0!
0'
#232201
0"
1!
1'
#232358
1"
0!
0'
#232515
0"
1!
1'
#232672
1"
0!
0'
#232829
0"
1!
1'
#232986
1"
0!
0'
#233143
0"
1!
1'
#233300
1"
0!
0'
#233457
0"
1!
1'
#233614
1"
0!
0'
#233771
0"
1!
1'
#233928
1"
0!
0'
#234085
0"
1!
1'
#234242
1"
0!
0'
#234399
0"
1!
1'
#234556
1"
0!
0'
#234713
0"
1!
1'
#234870
1"
0!
0'
#235027
0"
1!
1'
#235184
1"
0!
0'
#235341
0"
1!
1'
#235498
1"
0!
0'
#235655
0"
1!
1'
#235812
1"
0!
0'
#235969
0"
1!
1'
#236126
1"
0!
0'
#236283
0"
1!
1'
#236440
1"
0!
0'
#236597
0"
1!
1'
#236754
1"
0!
0'
#236911
0"
1!
1'
#237068
1"
0!
0'
#237225
0"
1!
1'
#237382
1"
0!
0'
#237539
0"
1!
1'
#237696
1"
0!
0'
#237853
0"
1!
1'
#238010
1"
0!
0'
#238167
0"
1!
1'
#238324
1"
0!
0'
#238481
0"
1!
1'
#238638
1"
0!
0'
#238795
0"
1!
1'
#238952
1"
0!
0'
#239109
0"
1!
1'
#239266
1"
0!
0'
#239423
0"
1!
1'
#239580
1"
0!
0'
#239737
0"
1!
1'
#239894
1"
0!
0'
#240051
0"
1!
1'
#240208
1"
0!
0'
#240365
0"
1!
1'
#240522
1"
0!
0'
#240679
0"
1!
1'
#240836
1"
0!
0'
#240993
0"
1!
1'
#241150
1"
0!
0'
#241307
0"
1!
1'
#241464
1"
0!
0'
#241621
0"
1!
1'
#241778
1"
0!
0'
#241935
0"
1!
1'
